{
	"type": "minecraft:crafting_shaped",
	
	"pattern":
	[
		"III",
		"IS ",
		" I "
	],
	
	"key":
	{
		"I": { "item": "minecraft:iron_ingot" },
		"S": { "item": "minecraft:stick" }	
	},
	
	"result": { "item": "morifirstmod:iron_pickaxeaxeshovel" }
}